%YAML 1.1
%TAG !u! tag:unity3d.com,2011:
--- !u!114 &11400000
MonoBehaviour:
  m_ObjectHideFlags: 0
  m_CorrespondingSourceObject: {fileID: 0}
  m_PrefabInstance: {fileID: 0}
  m_PrefabAsset: {fileID: 0}
  m_GameObject: {fileID: 0}
  m_Enabled: 1
  m_EditorHideFlags: 0
  m_Script: {fileID: 11500000, guid: 8105bf7953540244ea60145164f4dafc, type: 3}
  m_Name: GreedyFall
  m_EditorClassIdentifier: 
  transitions:
  - condition: {fileID: 11400000, guid: 020349d76c4704143a9618061bf0ff29, type: 2}
    trueState: {fileID: 11400000, guid: e6d50c76ad50bde40aa88d9743e71e90, type: 2}
    falseState: {fileID: 0}
  - condition: {fileID: 11400000, guid: 21aa8e24ef5d3544b98dd03268118616, type: 2}
    trueState: {fileID: 11400000, guid: 9b45a57583a71994c81c98220caff43f, type: 2}
    falseState: {fileID: 0}
  messageTransitions: []
